﻿# Anbennar: commented vanilla stuff

additional_flavor_check_effect = {
	if = { # March / Margrave
		limit = {
			is_alive = yes
			OR = {
				AND = {
					vassal_contract_has_flag = has_march_contract
					highest_held_title_tier = tier_duchy
				}
				primary_title ?= {
					has_variable = margrave_flag
				}
			}
		}
		add_character_flag = margrave_flag
	}
	else_if = {
		limit = {
			is_alive = yes
			has_character_flag = margrave_flag
		}
		remove_character_flag = margrave_flag
	}
	if = { # Palatinate (Duchy Tier)
		limit = {
			is_alive = yes
			OR = {
				AND = {
					vassal_contract_has_flag = has_palatinate_contract
					highest_held_title_tier = tier_duchy
				}
				primary_title ?= {
					has_variable = duchy_palatinate_flag
				}
			}
		}
		add_character_flag = duchy_palatinate_flag
	}
	else_if = {
		limit = {
			is_alive = yes
			has_character_flag = duchy_palatinate_flag
		}
		remove_character_flag = duchy_palatinate_flag
	}
	if = { # Palatinate (County Tier)
		limit = {
			is_alive = yes
			OR = {
				AND = {
					vassal_contract_has_flag = has_palatinate_contract
					highest_held_title_tier = tier_county
				}
				primary_title ?= {
					has_variable = county_palatinate_flag
				}
			}
		}
		add_character_flag = county_palatinate_flag
	}
	else_if = {
		limit = {
			is_alive = yes
			has_character_flag = county_palatinate_flag
		}
		remove_character_flag = county_palatinate_flag
	}
	if = { # Castellan / Burgrave
		limit = {
			is_alive = yes
			OR = {
				AND = {
					vassal_contract_has_flag = has_castellan_contract
					highest_held_title_tier = tier_county
				}
				primary_title ?= {
					has_variable = castellan_flag
				}
			}
		}
		add_character_flag = castellan_flag
	}
	else_if = {
		limit = {
			is_alive = yes
			has_character_flag = castellan_flag
		}
		remove_character_flag = castellan_flag
	}
}

additional_flavor_check_death_effect = {
	if = {
		limit = {
			OR = {
				has_character_flag = margrave_flag
				vassal_contract_has_flag = has_march_contract
			}
			highest_held_title_tier = tier_duchy
		}
		primary_title ?= { 
			set_variable = {
				name = margrave_flag 
				days = 1
			}
		}
	}
	if = {
		limit = {
			OR = {
				has_character_flag = duchy_palatinate_flag
				vassal_contract_has_flag = has_palatinate_contract
			}
			highest_held_title_tier = tier_duchy
		}
		primary_title ?= { 
			set_variable = {
				name = duchy_palatinate_flag 
				days = 1
			}
		}
	}
	if = {
		limit = {
			OR = {
				has_character_flag = county_palatinate_flag
				vassal_contract_has_flag = has_palatinate_contract
			}
			highest_held_title_tier = tier_county
		}
		primary_title ?= { 
			set_variable = {
				name = county_palatinate_flag 
				days = 1
			}
		}
	}
	if = {
		limit = {
			OR = {
				has_character_flag = castellan_flag
				vassal_contract_has_flag = has_castellan_contract
			}
			highest_held_title_tier = tier_county
		}
		primary_title ?= { 
			set_variable = {
				name = castellan_flag 
				days = 1
			}
		}
	}
}

# hre_margraves_effect = { # Anbennar
	# if = {
		# limit = {
			# game_start_date = 1066.9.15
		# }
		# title:e_hre.holder = {
			# every_vassal = {
				# limit = {
					# primary_title = {
						# OR = {
							# this = title:d_steyermark
							# this = title:d_osterreich
							# this = title:d_lausitz
							# this = title:d_meissen
							# this = title:d_nordgau
						# }
					# }
				# }
				# primary_title = {
					# set_variable = {
						# name = historical_margrave
						# days = 1
					# }
				# }
				# vassal_contract_set_obligation_level = {
					# type = special_contract
					# level = 2
				# }
				# additional_flavor_check_effect = yes
			# }
		# }
	# }
	# else_if = {
		# limit = {
			# game_start_date = 1178.10.1
		# }
		# title:e_hre.holder = {
			# every_vassal = {
				# limit = {
					# primary_title = {
						# OR = {
							# this = title:d_steyermark
							# this = title:d_lausitz
							# this = title:d_ostmark
							# this = title:d_meissen
						# }
					# }
				# }
				# primary_title = {
					# set_variable = {
						# name = historical_margrave
						# days = 1
					# }
				# }
				# vassal_contract_set_obligation_level = {
					# type = special_contract
					# level = 2
				# }
				# additional_flavor_check_effect = yes
			# }
		# }
	# }
# }
